map                   	351	0.5191
map                   	352	0.0225
map                   	353	0.2330
map                   	354	0.1549
map                   	355	0.1309
map                   	356	0.0107
map                   	357	0.3028
map                   	358	0.3001
map                   	359	0.0533
map                   	360	0.2184
map                   	361	0.3073
map                   	362	0.1129
map                   	363	0.0447
map                   	364	0.5528
map                   	365	0.7204
map                   	366	0.3193
map                   	367	0.1184
map                   	368	0.4067
map                   	369	0.2761
map                   	370	0.1190
map                   	371	0.0569
map                   	372	0.2499
map                   	373	0.3874
map                   	374	0.2370
map                   	375	0.2617
map                   	376	0.0099
map                   	377	0.2967
map                   	378	0.0380
map                   	379	0.0796
map                   	380	0.1612
map                   	381	0.0575
map                   	382	0.5975
map                   	383	0.0261
map                   	384	0.2411
map                   	385	0.2286
map                   	386	0.0221
map                   	387	0.1474
map                   	388	0.2458
map                   	389	0.0150
map                   	390	0.1956
map                   	391	0.2839
map                   	392	0.4340
map                   	393	0.0473
map                   	394	0.0353
map                   	395	0.1295
map                   	396	0.3037
map                   	397	0.3068
map                   	398	0.1010
map                   	399	0.0772
map                   	400	0.4163
map                   	all	0.2123
