Setting TERRIER_HOME to /home/alb/Desktop/University/IR/IR_HW1/terrier-core-4.4
P_10                  	351	1.0000
P_10                  	352	0.0000
P_10                  	353	0.5000
P_10                  	354	0.0000
P_10                  	355	0.2000
P_10                  	356	0.0000
P_10                  	357	0.0000
P_10                  	358	0.6000
P_10                  	359	0.1000
P_10                  	360	0.6000
P_10                  	361	0.5000
P_10                  	362	0.2000
P_10                  	363	0.1000
P_10                  	364	0.9000
P_10                  	365	1.0000
P_10                  	366	0.4000
P_10                  	367	0.4000
P_10                  	368	0.8000
P_10                  	369	0.2000
P_10                  	370	0.0000
P_10                  	371	0.0000
P_10                  	372	0.5000
P_10                  	373	0.0000
P_10                  	374	0.3000
P_10                  	375	0.3000
P_10                  	376	0.0000
P_10                  	377	0.3000
P_10                  	378	0.0000
P_10                  	379	0.1000
P_10                  	380	0.2000
P_10                  	381	0.1000
P_10                  	382	0.0000
P_10                  	383	0.3000
P_10                  	384	0.0000
P_10                  	385	0.6000
P_10                  	386	0.0000
P_10                  	387	0.2000
P_10                  	388	0.4000
P_10                  	389	0.2000
P_10                  	390	1.0000
P_10                  	391	0.0000
P_10                  	392	0.1000
P_10                  	393	0.2000
P_10                  	394	0.0000
P_10                  	395	0.0000
P_10                  	396	1.0000
P_10                  	397	0.7000
P_10                  	398	0.1000
P_10                  	399	0.3000
P_10                  	400	0.7000
P_10                  	all	0.3020
