Setting TERRIER_HOME to /home/alb/Desktop/University/IR/IR_HW1/terrier-core-4.4
Rprec                 	351	0.4583
Rprec                 	352	0.0691
Rprec                 	353	0.4508
Rprec                 	354	0.2216
Rprec                 	355	0.1333
Rprec                 	356	0.0000
Rprec                 	357	0.4074
Rprec                 	358	0.3137
Rprec                 	359	0.1429
Rprec                 	360	0.5033
Rprec                 	361	0.4444
Rprec                 	362	0.2308
Rprec                 	363	0.0000
Rprec                 	364	0.6000
Rprec                 	365	0.7143
Rprec                 	366	0.2323
Rprec                 	367	0.1693
Rprec                 	368	0.4590
Rprec                 	369	0.2308
Rprec                 	370	0.1756
Rprec                 	371	0.1765
Rprec                 	372	0.2857
Rprec                 	373	0.4545
Rprec                 	374	0.3529
Rprec                 	375	0.3250
Rprec                 	376	0.0392
Rprec                 	377	0.2821
Rprec                 	378	0.1020
Rprec                 	379	0.3125
Rprec                 	380	0.1429
Rprec                 	381	0.0357
Rprec                 	382	0.4091
Rprec                 	383	0.0890
Rprec                 	384	0.2353
Rprec                 	385	0.1860
Rprec                 	386	0.1053
Rprec                 	387	0.1529
Rprec                 	388	0.2549
Rprec                 	389	0.0155
Rprec                 	390	0.1642
Rprec                 	391	0.4438
Rprec                 	392	0.2381
Rprec                 	393	0.1127
Rprec                 	394	0.1176
Rprec                 	395	0.2066
Rprec                 	396	0.3559
Rprec                 	397	0.1481
Rprec                 	398	0.1931
Rprec                 	399	0.0980
Rprec                 	400	0.4320
Rprec                 	all	0.2485
